Help Session: In-class Hackathon and Forecasting Competition – STA 315 2.0 Essential Skills in Statistics
…
Rows: 1035 Columns: 3
── Column specification ────────────────────────────────────────────────────────
Delimiter: ","
chr (1): Date
dbl (2): ID, Value

ℹ Use `spec()` to retrieve the full column specification for this data.
ℹ Specify the column types or set `show_col_types = FALSE` to quiet this message.

#View(train)
train

# A tibble: 1,035 × 3
      ID Date       Value
   <dbl> <chr>      <dbl>
 1     1 01.01.2023  2246
 2     2 02.01.2023  3633
 3     3 03.01.2023  2982
 4     4 04.01.2023  2694
 5     5 05.01.2023  3512
 6     6 06.01.2023  3035
 7     7 07.01.2023  2773
 8     8 08.01.2023  2912
 9     9 09.01.2023  3806
10    10 10.01.2023  3239
# ℹ 1,025 more rows
…
# A tibble: 0 × 4
# ℹ 4 variables: ID <dbl>, Date <chr>, Value <dbl>, count <int>

# --- Convert to tsibble ---
df_ts <- train |>
  mutate(Date = dmy(Date)) |>        # Convert "01.01.2023" to Date format
  as_tsibble(index = Date)

df_ts

# A tsibble: 1,035 x 3 [1D]
      ID Date       Value
   <dbl> <date>     <dbl>
 1     1 2023-01-01  2246
 2     2 2023-01-02  3633
 3     3 2023-01-03  2982
 4     4 2023-01-04  2694
 5     5 2023-01-05  3512
 6     6 2023-01-06  3035
 7     7 2023-01-07  2773
 8     8 2023-01-08  2912
 9     9 2023-01-09  3806
10    10 2023-01-10  3239
# ℹ 1,025 more rows
…
sigma^2 estimated as 494379:  log likelihood=-7996.06
AIC=16006.11   AICc=16006.22   BIC=16040.49

Forecast for test period

h_test <- nrow(test)

fc <- sarima_auto |>
  forecast(h = h_test)
fc

# A fable: 31 x 4 [1D]
# Key:     .model [1]
   .model Date      
   <chr>  <date>    
 1 auto   2025-10-01
 2 auto   2025-10-02
 3 auto   2025-10-03
 4 auto   2025-10-04
 5 auto   2025-10-05
 6 auto   2025-10-06
 7 auto   2025-10-07
 8 auto   2025-10-08
 9 auto   2025-10-09
10 auto   2025-10-10
# ℹ 21 more rows
# ℹ 2 more variables: Value <dist>, .mean <dbl>
…
